…
``` r
pivot_wider(tally_status, names_from = group, values_from = n) |>
    arrange(package) |>
    mutate(total = translated  + fuzzy) |>
    select(-untranslated)
```

    ## # A tibble: 65 × 5
    ## # Groups:   language, package [65]
    ##    language          package  translated fuzzy total
    ##    <fct>             <chr>         <int> <int> <int>
    ##  1 Norwegian Nynorsk base           1764   519  2283
    ##  2 Portuguese_BR     base           1702   559  2261
    ##  3 Spanish           base           1285   515  1800
    ##  4 Turkish           base           1391   392  1783
    ##  5 Danish            base           1226   157  1383
    ##  6 Portuguese_BR     compiler         29     3    32
    ##  7 Danish            compiler         29     3    32
    ##  8 Norwegian Nynorsk compiler         NA    NA    NA
    ##  9 Turkish           compiler         NA    NA    NA
    ## 10 Spanish           compiler         NA    NA    NA
    ## # … with 55 more rows
